<?xml version="1.0" encoding="UTF-8" standalone="no"?>
<svg width="69px" height="35px" viewBox="0 0 69 35" version="1.1" xmlns="http://www.w3.org/2000/svg" xmlns:xlink="http://www.w3.org/1999/xlink" xmlns:sketch="http://www.bohemiancoding.com/sketch/ns">
    <!-- Generator: Sketch 3.3.2 (12043) - http://www.bohemiancoding.com/sketch -->
    <title>websee_logo</title>
    <desc>Created with Sketch.</desc>
    <defs></defs>
    <g id="Page-1" stroke="none" stroke-width="1" fill="none" fill-rule="evenodd" sketch:type="MSPage">
        <g id="Proizvodstvo_2" sketch:type="MSArtboardGroup" transform="translate(-966.000000, -947.000000)" fill="#FFFFFF">
            <g id="websee_logo" sketch:type="MSLayerGroup" transform="translate(966.000000, 947.000000)">
                <g id="Group" sketch:type="MSShapeGroup">
                    <path d="M14.29,31.62 L14.3,31.59 L19.06,15.94 L15.54,4.37 C14.97,2.5 13.52,0.99 12.3,0.99 L9.37,0.99 L4.34,0.99 L1.41,0.99 C0.19,0.99 -0.34,2.5 0.23,4.37 L8.48,31.529 C9.03,33.349 10.42,34.83 11.61,34.9 L11.58,34.9 C12.66,34.55 13.8,33.221 14.29,31.62 L14.29,31.62 Z" id="Shape"></path>
                    <path d="M41.48,1.14 C41.34,1.08 41.18,1.05 41.02,1.05 L38.44,1.05 L37.58,1.05 L35.01,1.05 L29.62,1.05 L27.05,1.05 C25.83,1.05 24.38,2.57 23.82,4.43 L15.57,31.59 L15.56,31.62 C15.07,33.221 13.93,34.55 12.85,34.9 C12.99,34.95 13.14,34.98 13.31,34.98 L26.43,34.98 L26.4,34.98 L26.47,34.98 L27.27,34.98 C28.49,34.98 29.94,33.459 30.51,31.589 L38.76,4.429 C39.25,2.82 40.391,1.48 41.48,1.14 L41.48,1.14 Z" id="Shape"></path>
                    <path d="M67.6,1.07 L64.66,1.07 L59.63,1.07 L56.69,1.07 C55.481,1.07 54.03,2.58 53.461,4.45 L45.211,31.609 L45.201,31.64 C44.711,33.24 43.571,34.57 42.491,34.91 C42.631,34.971 42.791,35 42.961,35 L45.901,35 L46.38,35 L49.32,35 L49.23,34.99 L49.32,34.99 L54.349,34.99 L57.289,34.99 C58.499,34.99 59.949,33.48 60.518,31.609 L68.77,4.45 C69.34,2.58 68.811,1.07 67.6,1.07 L67.6,1.07 Z" id="Shape"></path>
                    <path d="M43.84,31.609 L48.68,15.68 L45.26,4.44 C44.79,2.88 43.7,1.57 42.641,1.18 C41.59,1.57 40.5,2.87 40.029,4.43 L34.99,21.02 L38.2,31.6 C38.75,33.411 39.71,34.891 40.91,34.971 C40.84,34.96 41.189,34.94 41.12,34.91 C42.2,34.57 43.34,33.24 43.83,31.64 L43.84,31.609 L43.84,31.609 Z" id="Shape"></path>
                </g>
            </g>
        </g>
    </g>
</svg>